{
	"info": {
		"_postman_id": "d896d659-d78d-46a7-913d-819402a5fd83",
		"name": "s34",
		"schema": "https://schema.getpostman.com/json/collection/v2.1.0/collection.json",
		"_exporter_id": "27193811"
	},
	"item": [
		{
			"name": "discussion",
			"item": [
				{
					"name": "GET Hello World!",
					"request": {
						"method": "GET",
						"header": [],
						"url": {
							"raw": "localhost:4000/",
							"host": [
								"localhost"
							],
							"port": "4000",
							"path": [
								""
							]
						}
					},
					"response": []
				},
				{
					"name": "GET /hello endpoint",
					"request": {
						"method": "GET",
						"header": [],
						"url": {
							"raw": "localhost:4000/hello",
							"host": [
								"localhost"
							],
							"port": "4000",
							"path": [
								"hello"
							]
						}
					},
					"response": []
				},
				{
					"name": "POST greetings",
					"request": {
						"method": "POST",
						"header": [],
						"body": {
							"mode": "raw",
							"raw": "{\r\n    \"firstName\": \"John\",\r\n    \"lastName\": \"Doe\"\r\n}",
							"options": {
								"raw": {
									"language": "json"
								}
							}
						},
						"url": {
							"raw": "localhost:4000/hello",
							"host": [
								"localhost"
							],
							"port": "4000",
							"path": [
								"hello"
							]
						}
					},
					"response": []
				},
				{
					"name": "POST signup",
					"request": {
						"method": "POST",
						"header": [],
						"body": {
							"mode": "raw",
							"raw": "{\r\n    \"username\": \"bossmapagmahal\",\r\n    \"password\": \"ikawlangsapatna\"\r\n}",
							"options": {
								"raw": {
									"language": "json"
								}
							}
						},
						"url": {
							"raw": "localhost:4000/signup",
							"host": [
								"localhost"
							],
							"port": "4000",
							"path": [
								"signup"
							]
						}
					},
					"response": []
				},
				{
					"name": "PUT change password",
					"request": {
						"method": "PUT",
						"header": [],
						"body": {
							"mode": "raw",
							"raw": "{\r\n    \"username\": \"bossmapagmahal\",\r\n    \"password\": \"ikawlangsapatna\"\r\n}",
							"options": {
								"raw": {
									"language": "json"
								}
							}
						},
						"url": {
							"raw": "localhost:4000/change-password",
							"host": [
								"localhost"
							],
							"port": "4000",
							"path": [
								"change-password"
							]
						}
					},
					"response": []
				}
			]
		},
		{
			"name": "activity",
			"item": [
				{
					"name": "GET /home",
					"request": {
						"method": "GET",
						"header": [],
						"url": {
							"raw": "localhost:4000/home",
							"host": [
								"localhost"
							],
							"port": "4000",
							"path": [
								"home"
							]
						}
					},
					"response": []
				},
				{
					"name": "GET users",
					"request": {
						"method": "GET",
						"header": [],
						"url": {
							"raw": "localhost:4000/users",
							"host": [
								"localhost"
							],
							"port": "4000",
							"path": [
								"users"
							]
						}
					},
					"response": []
				},
				{
					"name": "DELETE user",
					"request": {
						"method": "DELETE",
						"header": [],
						"body": {
							"mode": "raw",
							"raw": "{\r\n    \"username\": \"bossmapagmahal\"\r\n}",
							"options": {
								"raw": {
									"language": "json"
								}
							}
						},
						"url": {
							"raw": "localhost:4000/delete-user",
							"host": [
								"localhost"
							],
							"port": "4000",
							"path": [
								"delete-user"
							]
						}
					},
					"response": []
				}
			]
		}
	]
}